{
	"info": {
		"_postman_id": "dccc037d-c428-49bb-9bbc-0833f71979e3",
		"name": "Devops",
		"schema": "https://schema.getpostman.com/json/collection/v2.1.0/collection.json",
		"_exporter_id": "25249119"
	},
	"item": [
		{
			"name": "status",
			"event": [
				{
					"listen": "test",
					"script": {
						"exec": [
							"pm.test(\"Status code is 200\", function(){",
							"    pm.response.to.have.status(200);",
							"})"
						],
						"type": "text/javascript"
					}
				}
			],
			"request": {
				"method": "GET",
				"header": [],
				"url": {
					"raw": "{{URL_APP}}/status",
					"host": [
						"{{URL_APP}}"
					],
					"path": [
						"status"
					]
				}
			},
			"response": []
		},
		{
			"name": "test",
			"event": [
				{
					"listen": "test",
					"script": {
						"exec": [
							"pm.test(\"Status code is 404\", function(){",
							"    pm.response.to.have.status(404);",
							"})"
						],
						"type": "text/javascript"
					}
				}
			],
			"request": {
				"method": "GET",
				"header": [],
				"url": {
					"raw": "{{URL_APP}}/test",
					"host": [
						"{{URL_APP}}"
					],
					"path": [
						"test"
					]
				}
			},
			"response": []
		},
		{
			"name": "city",
			"event": [
				{
					"listen": "test",
					"script": {
						"exec": [
							"pm.test(\"Body contains message\", () => {",
							"    pm.expect(pm.response.text()).to.include(\"Bordeaux\");",
							"})"
						],
						"type": "text/javascript"
					}
				}
			],
			"request": {
				"method": "GET",
				"header": [],
				"url": {
					"raw": "{{URL_APP}}/city",
					"host": [
						"{{URL_APP}}"
					],
					"path": [
						"city"
					]
				}
			},
			"response": []
		}
	]
}